# HRC test point.
# testpt sim meas
1.000e+00	6.200e-01	6.578e-01
2.000e+00	1.160e+00	7.774e-01
3.000e+00	1.160e+00	7.753e-01
4.000e+00	1.160e+00	7.982e-01
5.000e+00	8.500e-01	8.078e-01
6.000e+00	1.200e+00	9.653e-01
7.000e+00	6.200e-01	6.662e-01
8.000e+00	9.300e-01	5.662e-01
9.000e+00	6.200e-01	4.774e-01
1.000e+01	1.160e+00	9.537e-01
1.100e+01	6.200e-01	6.639e-01
1.200e+01	6.200e-01	6.577e-01
1.300e+01	9.300e-01	5.682e-01
1.400e+01	1.160e+00	7.765e-01
1.500e+01	1.160e+00	7.778e-01
