1.0000e+00,6.7400e-01
2.0000e+00,9.2361e-01
3.0000e+00,9.2234e-01
4.0000e+00,9.5994e-01
5.0000e+00,8.2590e-01
6.0000e+00,1.0875e+00
7.0000e+00,6.8361e-01
8.0000e+00,6.8903e-01
9.0000e+00,5.4220e-01
1.0000e+01,1.1056e+00
1.1000e+01,6.8141e-01
1.2000e+01,6.8617e-01
1.3000e+01,6.7361e-01
1.4000e+01,9.2585e-01
1.5000e+01,9.2137e-01
