# itest in bias test point: col1:testpt,col2:I(uA)
-1.000e+00	0.000e+00	0.000e+00	0.000e+00
0.000e+00	2.396e-05	2.957e-05	5.615e-06
1.000e+00	2.077e-05	2.599e-05	5.225e-06
2.000e+00	2.081e-05	2.598e-05	5.170e-06
3.000e+00	2.070e-05	2.592e-05	5.221e-06
4.000e+00	2.070e-05	2.598e-05	5.283e-06
5.000e+00	2.075e-05	2.600e-05	5.253e-06
6.000e+00	2.074e-05	2.599e-05	5.251e-06
7.000e+00	2.095e-05	2.611e-05	5.166e-06
8.000e+00	2.078e-05	2.599e-05	5.212e-06
9.000e+00	4.149e-05	4.663e-05	5.138e-06
1.000e+01	4.169e-05	4.691e-05	5.227e-06
1.100e+01	8.358e-05	9.909e-05	1.551e-05
1.200e+01	4.640e-05	5.181e-05	5.403e-06
1.300e+01	4.137e-05	4.657e-05	5.192e-06
1.400e+01	4.138e-05	4.659e-05	5.212e-06
1.500e+01	4.135e-05	4.657e-05	5.213e-06
1.600e+01	4.129e-05	4.661e-05	5.323e-06
1.700e+01	4.149e-05	4.679e-05	5.297e-06
1.800e+01	4.202e-05	4.733e-05	5.309e-06
1.900e+01	4.190e-05	4.724e-05	5.332e-06
2.000e+01	2.067e-05	2.586e-05	5.185e-06
2.100e+01	2.066e-05	2.579e-05	5.131e-06
2.200e+01	2.075e-05	2.588e-05	5.130e-06
2.300e+01	8.490e-05	9.014e-05	5.241e-06
2.400e+01	8.840e-05	9.367e-05	5.267e-06
2.500e+01	8.331e-05	8.844e-05	5.137e-06
2.600e+01	8.352e-05	8.874e-05	5.220e-06
2.700e+01	8.348e-05	8.856e-05	5.072e-06
2.800e+01	8.341e-05	8.854e-05	5.129e-06
2.900e+01	2.691e-08	-1.271e-08	-3.962e-08
3.000e+01	2.253e-08	-1.853e-08	-4.106e-08
3.100e+01	-4.573e-09	-4.545e-08	-4.088e-08
