# itest in bias test point: col1:testpt,col2:I(uA)
0.000e+00	0.000e+00	3.737e-04
1.000e+00	2.396e-05	3.977e-04
2.000e+00	2.080e-05	3.945e-04
3.000e+00	2.085e-05	3.946e-04
4.000e+00	2.076e-05	3.945e-04
5.000e+00	2.070e-05	3.944e-04
6.000e+00	2.076e-05	3.945e-04
7.000e+00	2.072e-05	3.945e-04
8.000e+00	2.096e-05	3.947e-04
9.000e+00	2.079e-05	3.945e-04
1.000e+01	4.152e-05	4.153e-04
1.100e+01	4.177e-05	4.155e-04
1.200e+01	8.363e-05	4.574e-04
1.300e+01	4.650e-05	4.202e-04
1.400e+01	4.145e-05	4.152e-04
1.500e+01	4.145e-05	4.152e-04
1.600e+01	4.138e-05	4.151e-04
1.700e+01	4.136e-05	4.151e-04
1.800e+01	4.156e-05	4.153e-04
1.900e+01	4.205e-05	4.158e-04
2.000e+01	4.193e-05	4.157e-04
2.100e+01	2.069e-05	3.944e-04
2.200e+01	2.069e-05	3.944e-04
2.300e+01	2.076e-05	3.945e-04
2.400e+01	8.482e-05	4.586e-04
2.500e+01	8.838e-05	4.621e-04
2.600e+01	8.328e-05	4.570e-04
2.700e+01	8.348e-05	4.572e-04
2.800e+01	8.343e-05	4.572e-04
2.900e+01	8.338e-05	4.571e-04
3.000e+01	4.349e-08	3.738e-04
3.100e+01	9.191e-08	3.738e-04
