# itest in bias test point: col1:testpt,col2:I(uA)
-1.000e+00	0.000e+00	0.000e+00	0.000e+00
0.000e+00	2.401e-05	1.834e-05	-5.672e-06
1.000e+00	2.085e-05	2.601e-05	5.161e-06
2.000e+00	2.085e-05	2.598e-05	5.132e-06
3.000e+00	2.076e-05	2.594e-05	5.184e-06
4.000e+00	2.079e-05	2.603e-05	5.235e-06
5.000e+00	2.082e-05	2.604e-05	5.227e-06
6.000e+00	2.077e-05	2.600e-05	5.234e-06
7.000e+00	2.099e-05	2.616e-05	5.174e-06
8.000e+00	2.082e-05	2.602e-05	5.196e-06
9.000e+00	4.155e-05	4.668e-05	5.134e-06
1.000e+01	4.183e-05	5.217e-05	1.033e-05
1.100e+01	8.368e-05	8.362e-05	-5.532e-08
1.200e+01	4.651e-05	5.190e-05	5.393e-06
1.300e+01	4.146e-05	4.662e-05	5.151e-06
1.400e+01	4.151e-05	4.663e-05	5.119e-06
1.500e+01	4.150e-05	4.665e-05	5.145e-06
1.600e+01	4.145e-05	4.663e-05	5.173e-06
1.700e+01	4.165e-05	3.641e-05	-5.238e-06
1.800e+01	4.213e-05	4.734e-05	5.209e-06
1.900e+01	4.197e-05	4.724e-05	5.266e-06
2.000e+01	2.069e-05	2.586e-05	5.172e-06
2.100e+01	2.069e-05	2.584e-05	5.151e-06
2.200e+01	2.074e-05	2.593e-05	5.190e-06
2.300e+01	8.480e-05	9.012e-05	5.314e-06
2.400e+01	8.830e-05	9.369e-05	5.391e-06
2.500e+01	8.320e-05	8.843e-05	5.226e-06
2.600e+01	8.344e-05	8.866e-05	5.224e-06
2.700e+01	8.335e-05	8.848e-05	5.131e-06
2.800e+01	8.334e-05	8.844e-05	5.099e-06
2.900e+01	-2.707e-08	-2.629e-08	7.780e-10
3.000e+01	-4.551e-08	-2.921e-08	1.630e-08
3.100e+01	-3.959e-08	-4.974e-08	-1.015e-08
