# Freq vs MSB
# code	Fosc(Hz)	\Pwr(dBm)
[  0.   1.   2.   3.   4.   5.   6.   7.   8.   9.  10.  11.  12.  13.  14.
  15.  16.  17.  18.  19.  20.  21.  22.  23.  24.  25.  26.  27.  28.  29.
  30.  31.]
[[  9.78800000e+09   9.32400000e+09   8.89200000e+09   8.50800000e+09
    8.15600000e+09   7.85200000e+09   7.56400000e+09   7.32400000e+09
    7.08400000e+09   6.87600000e+09   6.68400000e+09   6.49200000e+09
    6.33200000e+09   6.17200000e+09   6.02800000e+09   5.90000000e+09
    5.77200000e+09   5.66000000e+09   5.53200000e+09   5.43600000e+09
    5.34000000e+09   5.24400000e+09   5.14800000e+09   5.06800000e+09
    4.97200000e+09   4.90800000e+09   4.82800000e+09   4.74800000e+09
    4.68400000e+09   4.62000000e+09   4.55600000e+09   4.49200000e+09]
 [  9.80400000e+09   9.32400000e+09   8.89200000e+09   8.49200000e+09
    8.14000000e+09   7.83600000e+09   7.54800000e+09   7.29200000e+09
    7.06800000e+09   6.86000000e+09   6.66800000e+09   6.47600000e+09
    6.31600000e+09   6.15600000e+09   6.01200000e+09   5.88400000e+09
    5.75600000e+09   5.64400000e+09   5.53200000e+09   5.42000000e+09
    5.32400000e+09   5.22800000e+09   5.13200000e+09   5.05200000e+09
    4.97200000e+09   4.89200000e+09   4.81200000e+09   4.74800000e+09
    4.68400000e+09   4.62000000e+09   4.55600000e+09   4.49200000e+09]
 [  9.85200000e+09   9.38800000e+09   8.92400000e+09   8.52400000e+09
    8.17200000e+09   7.85200000e+09   7.56400000e+09   7.30800000e+09
    7.08400000e+09   6.86000000e+09   6.66800000e+09   6.49200000e+09
    6.31600000e+09   6.17200000e+09   6.02800000e+09   5.88400000e+09
    5.75600000e+09   5.64400000e+09   5.53200000e+09   5.42000000e+09
    5.32400000e+09   5.22800000e+09   5.13200000e+09   5.05200000e+09
    4.97200000e+09   4.89200000e+09   4.81200000e+09   4.74800000e+09
    4.68400000e+09   4.62000000e+09   4.55600000e+09   4.49200000e+09]
 [  9.90000000e+09   9.42000000e+09   8.97200000e+09   8.55600000e+09
    8.18800000e+09   7.86800000e+09   7.58000000e+09   7.32400000e+09
    7.08400000e+09   6.87600000e+09   6.68400000e+09   6.49200000e+09
    6.33200000e+09   6.17200000e+09   6.02800000e+09   5.90000000e+09
    5.77200000e+09   5.64400000e+09   5.53200000e+09   5.42000000e+09
    5.32400000e+09   5.22800000e+09   5.13200000e+09   5.05200000e+09
    4.97200000e+09   4.89200000e+09   4.81200000e+09   4.74800000e+09
    4.68400000e+09   4.62000000e+09   4.55600000e+09   4.49200000e+09]]
[[-32.318 -37.193 -35.371 -31.493 -24.719 -19.368 -23.239 -25.467 -25.855
  -27.373 -22.135 -19.355 -16.499 -15.712 -17.516 -19.636 -18.234 -19.238
  -19.57  -20.905 -22.079 -21.899 -21.33  -20.879 -21.86  -22.802 -25.306
  -35.238 -56.799 -61.114 -61.004 -64.147]
 [-30.23  -34.847 -33.12  -28.968 -22.071 -16.649 -21.464 -22.567 -22.956
  -24.172 -18.647 -15.488 -12.418 -11.629 -13.253 -14.376 -12.956 -13.398
  -12.942 -12.317 -11.841 -10.686  -9.02   -7.646  -7.224  -6.506  -5.964
   -6.082  -6.545  -7.927  -8.545  -9.281]
 [-28.714 -34.198 -32.23  -29.27  -22.381 -16.243 -20.19  -22.097 -22.442
  -23.687 -17.981 -14.989 -11.796 -10.935 -12.482 -13.788 -12.243 -12.727
  -12.232 -11.614 -11.132  -9.96   -8.263  -6.882  -6.435  -5.72   -5.189
   -5.33   -5.781  -7.175  -7.801  -8.498]
 [-28.31  -33.71  -32.107 -28.901 -23.21  -15.892 -19.391 -21.79  -21.993
  -23.422 -17.918 -14.865 -11.692 -10.556 -12.027 -13.6   -11.947 -12.418
  -11.855 -11.295 -10.796  -9.619  -7.972  -6.529  -6.086  -5.354  -4.81
   -4.966  -5.429  -6.82   -7.447  -8.125]]
# Address 0x04 0x00000047
