# Freq vs vco_b
# code	0	 1	2	3	Pwr(dBm)0,1,2,3vcen	vtopgnd
             0.0	   11086500000.0	             0.0	             0.0	             0.0	          -90.56	             0.0	             0.0	             0.0	     0.580191803	     0.580191803	     0.580191803	     0.580191803	      1.02197661	      1.02197661	      1.02197661	      1.02197661	     0.298191221	     0.298191221	     0.298191221	     0.298191221
             1.0	   11018900000.0	             0.0	             0.0	             0.0	          -54.39	             0.0	             0.0	             0.0	     0.582261712	     0.582261712	     0.582261712	     0.582261712	       1.0453917	       1.0453917	       1.0453917	       1.0453917	     0.301704135	     0.301704135	     0.301704135	     0.301704135
             2.0	   10987700000.0	             0.0	             0.0	             0.0	         -49.901	             0.0	             0.0	             0.0	     0.582991696	     0.582991696	     0.582991696	     0.582991696	      1.05124563	      1.05124563	      1.05124563	      1.05124563	      0.30636311	      0.30636311	      0.30636311	      0.30636311
             3.0	   11005900000.0	             0.0	             0.0	             0.0	          -41.78	             0.0	             0.0	             0.0	     0.584621015	     0.584621015	     0.584621015	     0.584621015	      1.06945141	      1.06945141	      1.06945141	      1.06945141	     0.309327228	     0.309327228	     0.309327228	     0.309327228
             4.0	   10904500000.0	             0.0	             0.0	             0.0	           -40.6	             0.0	             0.0	             0.0	     0.589236514	     0.589236514	     0.589236514	     0.589236514	      1.11782713	      1.11782713	      1.11782713	      1.11782713	     0.310967928	     0.310967928	     0.310967928	     0.310967928
             5.0	   10797900000.0	             0.0	             0.0	             0.0	         -41.699	             0.0	             0.0	             0.0	     0.595308658	     0.595308658	     0.595308658	     0.595308658	      1.17631459	      1.17631459	      1.17631459	      1.17631459	     0.312710797	     0.312710797	     0.312710797	     0.312710797
             6.0	   10712100000.0	             0.0	             0.0	             0.0	         -40.245	             0.0	             0.0	             0.0	     0.601359433	     0.601359433	     0.601359433	     0.601359433	      1.22985484	      1.22985484	      1.22985484	      1.22985484	     0.314154157	     0.314154157	     0.314154157	     0.314154157
             7.0	   10634100000.0	             0.0	             0.0	             0.0	         -40.858	             0.0	             0.0	             0.0	     0.608445229	     0.608445229	     0.608445229	     0.608445229	      1.28862221	      1.28862221	      1.28862221	      1.28862221	     0.315812058	     0.315812058	     0.315812058	     0.315812058
             8.0	   10569100000.0	             0.0	             0.0	             0.0	         -38.392	             0.0	             0.0	             0.0	     0.615753208	     0.615753208	     0.615753208	     0.615753208	      1.34233247	      1.34233247	      1.34233247	      1.34233247	     0.317465585	     0.317465585	     0.317465585	     0.317465585
             9.0	   10519700000.0	             0.0	             0.0	             0.0	         -39.938	             0.0	             0.0	             0.0	     0.622343465	     0.622343465	     0.622343465	     0.622343465	      1.38764875	      1.38764875	      1.38764875	      1.38764875	     0.318936992	     0.318936992	     0.318936992	     0.318936992
            10.0	   10721200000.0	             0.0	             0.0	             0.0	         -90.311	             0.0	             0.0	             0.0	      0.62742476	      0.62742476	      0.62742476	      0.62742476	      1.41798323	      1.41798323	      1.41798323	      1.41798323	      0.31999974	      0.31999974	      0.31999974	      0.31999974
            11.0	   10690000000.0	             0.0	             0.0	             0.0	         -89.231	             0.0	             0.0	             0.0	     0.631608027	     0.631608027	     0.631608027	     0.631608027	      1.44234262	      1.44234262	      1.44234262	      1.44234262	     0.320894255	     0.320894255	     0.320894255	     0.320894255
            12.0	   10859000000.0	             0.0	             0.0	             0.0	         -90.417	             0.0	             0.0	             0.0	     0.634278722	     0.634278722	     0.634278722	     0.634278722	      1.45862714	      1.45862714	      1.45862714	      1.45862714	     0.321435095	     0.321435095	     0.321435095	     0.321435095
            13.0	   10908400000.0	             0.0	             0.0	             0.0	         -90.195	             0.0	             0.0	             0.0	     0.637081711	     0.637081711	     0.637081711	     0.637081711	      1.47252439	      1.47252439	      1.47252439	      1.47252439	     0.321916754	     0.321916754	     0.321916754	     0.321916754
            14.0	   10560000000.0	             0.0	             0.0	             0.0	         -89.976	             0.0	             0.0	             0.0	     0.638860236	     0.638860236	     0.638860236	     0.638860236	      1.48270086	      1.48270086	      1.48270086	      1.48270086	     0.322388861	     0.322388861	     0.322388861	     0.322388861
            15.0	   10523600000.0	             0.0	             0.0	             0.0	         -90.161	             0.0	             0.0	             0.0	     0.640685947	     0.640685947	     0.640685947	     0.640685947	      1.49215913	      1.49215913	      1.49215913	      1.49215913	     0.322720369	     0.322720369	     0.322720369	     0.322720369
# Address 0x04 0x00000000 vco_k=0x4, MSB=0,NSB=1,LSB=0
