# Freq vs LSB
# code	Fosc(Hz)	\Pwr(dBm)
0.00000e+00	0.00000e+00	0.00000e+00
1.00000e+00	0.00000e+00	0.00000e+00
2.00000e+00	0.00000e+00	0.00000e+00
3.00000e+00	0.00000e+00	0.00000e+00
4.00000e+00	0.00000e+00	0.00000e+00
5.00000e+00	0.00000e+00	0.00000e+00
6.00000e+00	0.00000e+00	0.00000e+00
7.00000e+00	0.00000e+00	0.00000e+00
8.00000e+00	0.00000e+00	0.00000e+00
9.00000e+00	0.00000e+00	0.00000e+00
1.00000e+01	0.00000e+00	0.00000e+00
1.10000e+01	0.00000e+00	0.00000e+00
1.20000e+01	0.00000e+00	0.00000e+00
1.30000e+01	0.00000e+00	0.00000e+00
1.40000e+01	0.00000e+00	0.00000e+00
1.50000e+01	0.00000e+00	0.00000e+00
# Address 0x040x00000041
