# Freq vs vco_b
# code	0	 1	2	3	Pwr(dBm)0,1,2,3vcen	vtopgnd
             0.0	   10900000000.0	   11144000000.0	   11008000000.0	   11040000000.0	         -90.454	         -90.247	         -81.581	         -79.999	      1.02375352	     0.960671895	     0.889942091	     0.851980957	     0.579971606	     0.574973607	     0.569384978	     0.572800517	     0.297978649	     0.298187672	     0.298501213	     0.303639739
             1.0	   11052000000.0	   11016000000.0	   11012000000.0	   11028000000.0	         -56.069	         -74.845	         -73.742	         -73.985	      1.04611977	     0.941163784	     0.888799157	      0.85496569	     0.581989412	     0.585408515	     0.569202297	     0.566577513	     0.301532718	     0.310490184	     0.300930359	     0.300898402
             2.0	   11020000000.0	   11004000000.0	   11032000000.0	   11128000000.0	         -48.582	         -72.591	         -73.688	         -63.064	      1.05108596	      0.95029849	     0.891267499	     0.820650374	     0.582671956	     0.574174691	     0.569747385	     0.565679031	     0.306258799	     0.304585549	     0.304339614	      0.30513842
             3.0	   11036000000.0	   11036000000.0	   11048000000.0	   11068000000.0	         -44.271	         -40.717	         -41.156	         -40.131	       1.0695439	     0.928995187	     0.870886827	     0.839775899	     0.584487724	     0.572747908	     0.568822819	     0.566698358	     0.309188541	     0.308981336	     0.309105665	     0.309002599
             4.0	   10932000000.0	   10940000000.0	   10976000000.0	   11012000000.0	         -41.936	         -40.242	         -41.427	         -39.398	      1.11855693	     0.984582749	     0.932036581	     0.904939178	     0.589036768	      0.57700913	     0.573136586	     0.571148797	     0.310739633	     0.310675042	     0.310848528	     0.310764312
             5.0	   10824000000.0	   10852000000.0	   10908000000.0	   10964000000.0	         -41.364	         -40.824	         -39.137	         -40.802	      1.17639316	      1.04710658	     0.996780569	     0.970115688	     0.595131412	     0.582243245	     0.578254012	     0.576172804	     0.312508164	     0.312465807	     0.312665115	     0.312679342
             6.0	   10740000000.0	   10780000000.0	   10856000000.0	   10924000000.0	         -40.892	         -38.856	         -41.261	          -39.67	      1.23037785	      1.10210989	      1.05219464	      1.02424719	     0.601176064	     0.587371353	      0.58299164	     0.580630664	     0.314046019	     0.314061389	     0.314241975	        0.314274
             7.0	   10660000000.0	   10708000000.0	   10804000000.0	   10884000000.0	         -40.613	         -39.957	         -39.011	         -41.848	      1.28950262	      1.15984067	      1.10760691	      1.07836513	     0.608537454	     0.593332373	     0.588406093	     0.585689649	     0.315760456	     0.315805377	     0.316125169	      0.31615723
             8.0	   10592000000.0	   10648000000.0	   10756000000.0	   10844000000.0	          -38.94	         -39.947	          -41.23	         -40.627	      1.34347145	      1.21433449	      1.15919705	      1.12799209	     0.615602854	     0.599678428	     0.594020802	     0.590651749	     0.317220305	     0.317613805	     0.317843504	     0.317800839
             9.0	   10544000000.0	   10592000000.0	   10712000000.0	   10804000000.0	         -42.684	         -39.533	         -40.263	         -39.762	      1.38831436	      1.26718139	      1.20906936	      1.17506605	     0.622440407	     0.606172742	     0.599676828	     0.595883398	      0.31874502	      0.31930861	     0.319578813	     0.319691058
            10.0	   10512000000.0	   10548000000.0	   10672000000.0	   10764000000.0	         -41.481	         -39.252	         -38.934	         -40.856	      1.41876197	      1.31121329	      1.25254733	      1.21630906	     0.627291138	     0.611901584	     0.604989794	     0.600812506	      0.31977631	     0.320787501	     0.321106681	     0.321206805
            11.0	   10488000000.0	   10508000000.0	   10628000000.0	   10724000000.0	         -41.231	         -39.841	         -40.715	         -42.127	       1.4427524	      1.35152191	      1.29659675	       1.2590602	     0.631406614	     0.617600547	     0.610505243	     0.605935719	     0.320588678	     0.322177308	     0.322611055	     0.322802843
            12.0	   10472000000.0	   10484000000.0	   10596000000.0	   10688000000.0	         -39.367	         -40.159	         -43.454	         -43.108	      1.45915402	       1.3801574	      1.33051274	       1.2938953	     0.634228927	     0.621925178	     0.615164922	     0.610522976	     0.321063081	     0.323119453	     0.323869658	     0.324223327
            13.0	   10460000000.0	   10464000000.0	   10568000000.0	   10652000000.0	         -40.339	         -39.679	         -41.376	         -45.423	      1.47318825	      1.40304613	      1.35880606	      1.32585269	     0.636865931	     0.625399253	     0.619207205	     0.614782311	     0.321585372	     0.323897968	     0.324838766	     0.325468757
            14.0	   10448000000.0	   10448000000.0	   10552000000.0	   10628000000.0	         -38.914	         -41.376	         -41.806	         -45.157	      1.48338339	      1.41859022	      1.37903324	      1.34867027	     0.639102984	     0.628117887	     0.622392058	     0.618148605	     0.322039002	     0.324566749	     0.325586107	     0.326505304
            15.0	   10440000000.0	   10436000000.0	   10536000000.0	   10608000000.0	         -44.387	         -37.649	         -44.043	         -42.541	      1.49264089	      1.43263425	      1.39605045	      1.36754019	      0.64090967	     0.630404426	     0.625210592	     0.620971164	     0.322462086	      0.32511775	     0.326329896	     0.327307053
# Address 0x04 0x00000000 vco_k=0x4, MSB=0,NSB=0,LSB=0
