# Freq vs MSB
# code	Fosc(Hz)	\Pwr(dBm)
[  0.   1.   2.   3.   4.   5.   6.   7.   8.   9.  10.  11.  12.  13.  14.
  15.  16.  17.  18.  19.  20.  21.  22.  23.  24.  25.  26.  27.  28.  29.
  30.  31.]
[[  9.93200000e+09   9.45200000e+09   9.00400000e+09   8.60400000e+09
    8.23600000e+09   7.90000000e+09   7.61200000e+09   7.35600000e+09
    7.11600000e+09   6.89200000e+09   6.70000000e+09   6.52400000e+09
    6.34800000e+09   6.18800000e+09   6.04400000e+09   5.91600000e+09
    5.77200000e+09   5.66000000e+09   5.54800000e+09   5.43600000e+09
    5.34000000e+09   5.24400000e+09   5.14800000e+09   5.06800000e+09
    4.98800000e+09   4.90800000e+09   4.82800000e+09   4.76400000e+09
    4.68400000e+09   4.62000000e+09   4.55600000e+09   4.50800000e+09]
 [  0.00000000e+00   0.00000000e+00   0.00000000e+00   0.00000000e+00
    0.00000000e+00   0.00000000e+00   0.00000000e+00   0.00000000e+00
    0.00000000e+00   0.00000000e+00   0.00000000e+00   0.00000000e+00
    0.00000000e+00   0.00000000e+00   0.00000000e+00   0.00000000e+00
    0.00000000e+00   0.00000000e+00   0.00000000e+00   0.00000000e+00
    0.00000000e+00   0.00000000e+00   0.00000000e+00   0.00000000e+00
    0.00000000e+00   0.00000000e+00   0.00000000e+00   0.00000000e+00
    0.00000000e+00   0.00000000e+00   0.00000000e+00   0.00000000e+00]
 [  0.00000000e+00   0.00000000e+00   0.00000000e+00   0.00000000e+00
    0.00000000e+00   0.00000000e+00   0.00000000e+00   0.00000000e+00
    0.00000000e+00   0.00000000e+00   0.00000000e+00   0.00000000e+00
    0.00000000e+00   0.00000000e+00   0.00000000e+00   0.00000000e+00
    0.00000000e+00   0.00000000e+00   0.00000000e+00   0.00000000e+00
    0.00000000e+00   0.00000000e+00   0.00000000e+00   0.00000000e+00
    0.00000000e+00   0.00000000e+00   0.00000000e+00   0.00000000e+00
    0.00000000e+00   0.00000000e+00   0.00000000e+00   0.00000000e+00]
 [  0.00000000e+00   0.00000000e+00   0.00000000e+00   0.00000000e+00
    0.00000000e+00   0.00000000e+00   0.00000000e+00   0.00000000e+00
    0.00000000e+00   0.00000000e+00   0.00000000e+00   0.00000000e+00
    0.00000000e+00   0.00000000e+00   0.00000000e+00   0.00000000e+00
    0.00000000e+00   0.00000000e+00   0.00000000e+00   0.00000000e+00
    0.00000000e+00   0.00000000e+00   0.00000000e+00   0.00000000e+00
    0.00000000e+00   0.00000000e+00   0.00000000e+00   0.00000000e+00
    0.00000000e+00   0.00000000e+00   0.00000000e+00   0.00000000e+00]]
[[-28.258 -33.104 -34.076 -30.645 -27.7   -15.762 -22.114 -20.924 -21.974
  -23.558 -18.96  -15.116 -11.871 -10.433 -11.982 -13.794 -11.603 -12.178
  -11.56  -11.324 -10.553  -9.57   -8.436  -6.836  -5.997  -5.335  -4.772
   -4.845  -5.293  -6.632  -7.195  -8.155]
 [  0.      0.      0.      0.      0.      0.      0.      0.      0.      0.
    0.      0.      0.      0.      0.      0.      0.      0.      0.      0.
    0.      0.      0.      0.      0.      0.      0.      0.      0.      0.
    0.      0.   ]
 [  0.      0.      0.      0.      0.      0.      0.      0.      0.      0.
    0.      0.      0.      0.      0.      0.      0.      0.      0.      0.
    0.      0.      0.      0.      0.      0.      0.      0.      0.      0.
    0.      0.   ]
 [  0.      0.      0.      0.      0.      0.      0.      0.      0.      0.
    0.      0.      0.      0.      0.      0.      0.      0.      0.      0.
    0.      0.      0.      0.      0.      0.      0.      0.      0.      0.
    0.      0.   ]]
# Address 0x04 0x00000047
