# Freq vs MSB
# code	Fosc(Hz)	\Pwr(dBm)
0.00000e+00	9.70800e+09	-3.39700e+01
1.00000e+00	9.27600e+09	-3.61230e+01
2.00000e+00	8.87600e+09	-3.44040e+01
3.00000e+00	8.49200e+09	-3.00080e+01
4.00000e+00	8.15600e+09	-2.31920e+01
5.00000e+00	7.83600e+09	-1.75610e+01
6.00000e+00	7.54800e+09	-2.23270e+01
7.00000e+00	7.29200e+09	-2.32230e+01
8.00000e+00	7.05200e+09	-2.34180e+01
9.00000e+00	6.84400e+09	-2.44620e+01
1.00000e+01	6.65200e+09	-1.93900e+01
1.10000e+01	6.47600e+09	-1.57510e+01
1.20000e+01	6.30000e+09	-1.27420e+01
1.30000e+01	6.15600e+09	-1.21230e+01
1.40000e+01	6.01200e+09	-1.36970e+01
1.50000e+01	5.88400e+09	-1.45650e+01
1.60000e+01	5.75600e+09	-1.32270e+01
1.70000e+01	5.62800e+09	-1.36700e+01
1.80000e+01	5.51600e+09	-1.32370e+01
1.90000e+01	5.42000e+09	-1.25040e+01
2.00000e+01	5.32400e+09	-1.19990e+01
2.10000e+01	5.22800e+09	-1.08540e+01
2.20000e+01	5.13200e+09	-9.00200e+00
2.30000e+01	5.05200e+09	-7.67600e+00
2.40000e+01	4.97200e+09	-7.17100e+00
2.50000e+01	4.89200e+09	-6.49900e+00
2.60000e+01	4.81200e+09	-5.98600e+00
2.70000e+01	4.74800e+09	-6.15300e+00
2.80000e+01	4.66800e+09	-6.74400e+00
2.90000e+01	4.60400e+09	-8.08600e+00
3.00000e+01	4.54000e+09	-8.55900e+00
3.10000e+01	4.49200e+09	-9.14800e+00
# Address 0x04 0x00000065
